660 100
0 150
660 100
0 300
660 100
0 300
510 100
0 100
660 100
0 300
770 100
0 550
380 100
0 575
510 100
0 450
380 100
0 400
320 100
0 500
440 100
0 300
480 80
0 330
450 100
0 150
430 100
0 300
380 100
0 200
660 80
0 200
760 50
0 150
860 100
0 300
700 80
0 150
760 50
0 350
1000 80
0 300
520 80
0 150
580 80
0 150
480 80
0 500
510 100
0 450
380 100
0 400
320 100
0 500
440 100
0 300
480 80
0 330
450 100
0 150
430 100
0 300
380 100
0 200
660 80
0 200
760 50
0 150
860 100
0 300
700 80
0 150
760 50
0 350
660 80
0 300
520 80
0 150
580 80
0 150
480 80
0 500
500 100
0 300
760 100
0 100
720 100
 
 

